Exercise2/half_adder/simulation/qsim/half_adder.msim.vcd
$comment
	File created using the following command:
		vcd file half_adder.msim.vcd -direction
$end
$date
	Wed Mar 02 20:24:18 2016
$end
$version
	ModelSim Version 10.1d
$end
$timescale
	1ps
$end
$scope module four_bit_adder_vlg_vec_tst $end
$var reg 4 ! A [3:0] $end
$var reg 4 " B [3:0] $end
$var reg 1 # cin $end
$var wire 1 $ c1 $end
$var wire 1 % c2 $end
$var wire 1 & c3 $end
$var wire 1 ' cout $end
$var wire 1 ( sum [3] $end
$var wire 1 ) sum [2] $end
$var wire 1 * sum [1] $end
$var wire 1 + sum [0] $end
$var wire 1 , sampler $end
$scope module i1 $end
$var wire 1 - gnd $end
$var wire 1 . vcc $end
$var wire 1 / unknown $end
$var tri1 1 0 devclrn $end
$var tri1 1 1 devpor $end
$var tri1 1 2 devoe $end
$var wire 1 3 cin~combout $end
$var wire 1 4 fa1|h2|sum~0_combout $end
$var wire 1 5 fa1|FAcout~0_combout $end
$var wire 1 6 fa2|h2|sum~combout $end
$var wire 1 7 fa3|h2|sum~0_combout $end
$var wire 1 8 fa3|h2|sum~combout $end
$var wire 1 9 fa3|FAcout~2_combout $end
$var wire 1 : fa3|FAcout~3_combout $end
$var wire 1 ; fa3|FAcout~4_combout $end
$var wire 1 < fa4|h2|sum~combout $end
$var wire 1 = fa4|FAcout~0_combout $end
$var wire 1 > fa2|FAcout~0_combout $end
$var wire 1 ? fa3|FAcout~5_combout $end
$var wire 1 @ B~combout [3] $end
$var wire 1 A B~combout [2] $end
$var wire 1 B B~combout [1] $end
$var wire 1 C B~combout [0] $end
$var wire 1 D A~combout [3] $end
$var wire 1 E A~combout [2] $end
$var wire 1 F A~combout [1] $end
$var wire 1 G A~combout [0] $end
$upscope $end
$upscope $end
$enddefinitions $end
#0
$dumpvars
b0 !
b10 "
0#
x$
x%
x&
x'
x+
x*
x)
x(
x,
0-
1.
x/
10
11
12
03
x4
x5
x6
x7
x8
x9
x:
x;
x<
x=
x>
x?
0C
1B
0A
0@
0G
0F
0E
0D
$end
#1072
09
#2552
04
#2665
05
#2761
0:
#2795
07
#2973
0=
#3403
0>
#3405
08
16
#3436
0;
#3843
0?
0<
#7324
0+
#7826
0$
#8008
0'
#8174
0(
#8411
0)
#8449
1*
#8625
0&
#9190
0%
#10000
b1 !
b11 !
b111 !
b1111 !
b11 "
b1 "
b101 "
b1101 "
1#
0,
#10979
1A
#10989
0B
1C
#10999
13
1D
1E
1F
1G
1@
#12071
1:
#12076
17
#12187
1<
#12293
14
#12373
06
#12749
18
#13117
16
#13664
15
#13765
1?
19
#13774
07
#13971
0<
#13972
1=
#14402
1>
#14404
06
#14405
1;
#14444
1<
#16518
1(
#17065
1+
#17755
1)
#18547
1&
#18825
1$
#19007
1'
#19448
0*
#20000
b1110 !
b1100 !
b1000 !
b0 !
b1100 "
b1110 "
b1010 "
b10 "
0#
1,
#20189
1%
#20979
0A
#20989
1B
0C
#20999
03
0D
0E
0F
0G
0@
#22071
09
#22076
17
#22187
0<
#22293
04
#22373
16
#22749
08
#23117
06
#23664
05
#23740
0:
#23774
07
#23971
1<
#23972
0=
#24402
0>
#24404
16
#24415
0;
#24822
0?
0<
#26518
0(
#27065
0+
#27755
0)
#28825
0$
#29007
0'
#29448
1*
#29604
0&
#30000
b1 !
b11 !
b111 !
b1111 !
b11 "
b1 "
b101 "
b1101 "
1#
0,
#30189
0%
#30979
1A
#30989
0B
1C
#30999
13
1D
1E
1F
1G
1@
#32071
1:
#32076
17
#32187
1<
#32293
14
#32373
06
#32749
18
#33117
16
#33664
15
#33765
1?
19
#33774
07
#33971
0<
#33972
1=
#34402
1>
#34404
06
#34405
1;
#34444
1<
#36518
1(
#37065
1+
#37755
1)
#38547
1&
#38825
1$
#39007
1'
#39448
0*
#40000
b1110 !
b1100 !
b1000 !
b0 !
b1100 "
b1110 "
b1010 "
b10 "
0#
1,
#40189
1%
#40979
0A
#40989
1B
0C
#40999
03
0D
0E
0F
0G
0@
#42071
09
#42076
17
#42187
0<
#42293
04
#42373
16
#42749
08
#43117
06
#43664
05
#43740
0:
#43774
07
#43971
1<
#43972
0=
#44402
0>
#44404
16
#44415
0;
#44822
0?
0<
#46518
0(
#47065
0+
#47755
0)
#48825
0$
#49007
0'
#49448
1*
#49604
0&
#50000
b1 !
b11 !
b111 !
b1111 !
b11 "
b1 "
b101 "
b1101 "
1#
0,
#50189
0%
#50979
1A
#50989
0B
1C
#50999
13
1D
1E
1F
1G
1@
#52071
1:
#52076
17
#52187
1<
#52293
14
#52373
06
#52749
18
#53117
16
#53664
15
#53765
1?
19
#53774
07
#53971
0<
#53972
1=
#54402
1>
#54404
06
#54405
1;
#54444
1<
#56518
1(
#57065
1+
#57755
1)
#58547
1&
#58825
1$
#59007
1'
#59448
0*
#60000
b1110 !
b1100 !
b1000 !
b0 !
b1100 "
b1110 "
b1010 "
b10 "
0#
1,
#60189
1%
#60979
0A
#60989
1B
0C
#60999
03
0D
0E
0F
0G
0@
#62071
09
#62076
17
#62187
0<
#62293
04
#62373
16
#62749
08
#63117
06
#63664
05
#63740
0:
#63774
07
#63971
1<
#63972
0=
#64402
0>
#64404
16
#64415
0;
#64822
0?
0<
#66518
0(
#67065
0+
#67755
0)
#68825
0$
#69007
0'
#69448
1*
#69604
0&
#70000
b1 !
b11 !
b111 !
b1111 !
b11 "
b1 "
b101 "
b1101 "
1#
0,
#70189
0%
#70979
1A
#70989
0B
1C
#70999
13
1D
1E
1F
1G
1@
#72071
1:
#72076
17
#72187
1<
#72293
14
#72373
06
#72749
18
#73117
16
#73664
15
#73765
1?
19
#73774
07
#73971
0<
#73972
1=
#74402
1>
#74404
06
#74405
1;
#74444
1<
#76518
1(
#77065
1+
#77755
1)
#78547
1&
#78825
1$
#79007
1'
#79448
0*
#80000
b1110 !
b1100 !
b1000 !
b0 !
b1100 "
b1110 "
b1010 "
b10 "
0#
1,
#80189
1%
#80979
0A
#80989
1B
0C
#80999
03
0D
0E
0F
0G
0@
#82071
09
#82076
17
#82187
0<
#82293
04
#82373
16
#82749
08
#83117
06
#83664
05
#83740
0:
#83774
07
#83971
1<
#83972
0=
#84402
0>
#84404
16
#84415
0;
#84822
0?
0<
#86518
0(
#87065
0+
#87755
0)
#88825
0$
#89007
0'
#89448
1*
#89604
0&
#90000
b1 !
b11 !
b111 !
b1111 !
b11 "
b1 "
b101 "
b1101 "
1#
0,
#90189
0%
#90979
1A
#90989
0B
1C
#90999
13
1D
1E
1F
1G
1@
#92071
1:
#92076
17
#92187
1<
#92293
14
#92373
06
#92749
18
#93117
16
#93664
15
#93765
1?
19
#93774
07
#93971
0<
#93972
1=
#94402
1>
#94404
06
#94405
1;
#94444
1<
#96518
1(
#97065
1+
#97755
1)
#98547
1&
#98825
1$
#99007
1'
#99448
0*
#100000
b1110 !
b1100 !
b1000 !
b0 !
b1100 "
b1110 "
b1010 "
b10 "
0#
1,
#100189
1%
#100979
0A
#100989
1B
0C
#100999
03
0D
0E
0F
0G
0@
#102071
09
#102076
17
#102187
0<
#102293
04
#102373
16
#102749
08
#103117
06
#103664
05
#103740
0:
#103774
07
#103971
1<
#103972
0=
#104402
0>
#104404
16
#104415
0;
#104822
0?
0<
#106518
0(
#107065
0+
#107755
0)
#108825
0$
#109007
0'
#109448
1*
#109604
0&
#110000
b1 !
b11 !
b111 !
b1111 !
b11 "
b1 "
b101 "
b1101 "
1#
0,
#110189
0%
#110979
1A
#110989
0B
1C
#110999
13
1D
1E
1F
1G
1@
#112071
1:
#112076
17
#112187
1<
#112293
14
#112373
06
#112749
18
#113117
16
#113664
15
#113765
1?
19
#113774
07
#113971
0<
#113972
1=
#114402
1>
#114404
06
#114405
1;
#114444
1<
#116518
1(
#117065
1+
#117755
1)
#118547
1&
#118825
1$
#119007
1'
#119448
0*
#120000
b1110 !
b1100 !
b1000 !
b0 !
b1100 "
b1110 "
b1010 "
b10 "
0#
1,
#120189
1%
#120979
0A
#120989
1B
0C
#120999
03
0D
0E
0F
0G
0@
#122071
09
#122076
17
#122187
0<
#122293
04
#122373
16
#122749
08
#123117
06
#123664
05
#123740
0:
#123774
07
#123971
1<
#123972
0=
#124402
0>
#124404
16
#124415
0;
#124822
0?
0<
#126518
0(
#127065
0+
#127755
0)
#128825
0$
#129007
0'
#129448
1*
#129604
0&
#130000
b1 !
b11 !
b111 !
b1111 !
b11 "
b1 "
b101 "
b1101 "
1#
0,
#130189
0%
#130979
1A
#130989
0B
1C
#130999
13
1D
1E
1F
1G
1@
#132071
1:
#132076
17
#132187
1<
#132293
14
#132373
06
#132749
18
#133117
16
#133664
15
#133765
1?
19
#133774
07
#133971
0<
#133972
1=
#134402
1>
#134404
06
#134405
1;
#134444
1<
#136518
1(
#137065
1+
#137755
1)
#138547
1&
#138825
1$
#139007
1'
#139448
0*
#140000
b1110 !
b1100 !
b1000 !
b0 !
b1100 "
b1110 "
b1010 "
b10 "
0#
1,
#140189
1%
#140979
0A
#140989
1B
0C
#140999
03
0D
0E
0F
0G
0@
#142071
09
#142076
17
#142187
0<
#142293
04
#142373
16
#142749
08
#143117
06
#143664
05
#143740
0:
#143774
07
#143971
1<
#143972
0=
#144402
0>
#144404
16
#144415
0;
#144822
0?
0<
#146518
0(
#147065
0+
#147755
0)
#148825
0$
#149007
0'
#149448
1*
#149604
0&
#150000
b1 !
b11 !
b111 !
b1111 !
b11 "
b1 "
b101 "
b1101 "
1#
0,
#150189
0%
#150979
1A
#150989
0B
1C
#150999
13
1D
1E
1F
1G
1@
#152071
1:
#152076
17
#152187
1<
#152293
14
#152373
06
#152749
18
#153117
16
#153664
15
#153765
1?
19
#153774
07
#153971
0<
#153972
1=
#154402
1>
#154404
06
#154405
1;
#154444
1<
#156518
1(
#157065
1+
#157755
1)
#158547
1&
#158825
1$
#159007
1'
#159448
0*
#160000
b1110 !
b1100 !
b1000 !
b0 !
b1100 "
b1110 "
b1010 "
b10 "
0#
1,
#160189
1%
#160979
0A
#160989
1B
0C
#160999
03
0D
0E
0F
0G
0@
#162071
09
#162076
17
#162187
0<
#162293
04
#162373
16
#162749
08
#163117
06
#163664
05
#163740
0:
#163774
07
#163971
1<
#163972
0=
#164402
0>
#164404
16
#164415
0;
#164822
0?
0<
#166518
0(
#167065
0+
#167755
0)
#168825
0$
#169007
0'
#169448
1*
#169604
0&
#170000
b1 !
b11 !
b111 !
b1111 !
b11 "
b1 "
b101 "
b1101 "
1#
0,
#170189
0%
#170979
1A
#170989
0B
1C
#170999
13
1D
1E
1F
1G
1@
#172071
1:
#172076
17
#172187
1<
#172293
14
#172373
06
#172749
18
#173117
16
#173664
15
#173765
1?
19
#173774
07
#173971
0<
#173972
1=
#174402
1>
#174404
06
#174405
1;
#174444
1<
#176518
1(
#177065
1+
#177755
1)
#178547
1&
#178825
1$
#179007
1'
#179448
0*
#180000
b1110 !
b1100 !
b1000 !
b0 !
b1100 "
b1110 "
b1010 "
b10 "
0#
1,
#180189
1%
#180979
0A
#180989
1B
0C
#180999
03
0D
0E
0F
0G
0@
#182071
09
#182076
17
#182187
0<
#182293
04
#182373
16
#182749
08
#183117
06
#183664
05
#183740
0:
#183774
07
#183971
1<
#183972
0=
#184402
0>
#184404
16
#184415
0;
#184822
0?
0<
#186518
0(
#187065
0+
#187755
0)
#188825
0$
#189007
0'
#189448
1*
#189604
0&
#190000
b1 !
b11 !
b111 !
b1111 !
b11 "
b1 "
b101 "
b1101 "
1#
0,
#190189
0%
#190979
1A
#190989
0B
1C
#190999
13
1D
1E
1F
1G
1@
#192071
1:
#192076
17
#192187
1<
#192293
14
#192373
06
#192749
18
#193117
16
#193664
15
#193765
1?
19
#193774
07
#193971
0<
#193972
1=
#194402
1>
#194404
06
#194405
1;
#194444
1<
#196518
1(
#197065
1+
#197755
1)
#198547
1&
#198825
1$
#199007
1'
#199448
0*
#200000
b1110 !
b1100 !
b1000 !
b0 !
b1100 "
b1110 "
b1010 "
b10 "
0#
1,
#200189
1%
#200979
0A
#200989
1B
0C
#200999
03
0D
0E
0F
0G
0@
#202071
09
#202076
17
#202187
0<
#202293
04
#202373
16
#202749
08
#203117
06
#203664
05
#203740
0:
#203774
07
#203971
1<
#203972
0=
#204402
0>
#204404
16
#204415
0;
#204822
0?
0<
#206518
0(
#207065
0+
#207755
0)
#208825
0$
#209007
0'
#209448
1*
#209604
0&
#210000
b1 !
b11 !
b111 !
b1111 !
b11 "
b1 "
b101 "
b1101 "
1#
0,
#210189
0%
#210979
1A
#210989
0B
1C
#210999
13
1D
1E
1F
1G
1@
#212071
1:
#212076
17
#212187
1<
#212293
14
#212373
06
#212749
18
#213117
16
#213664
15
#213765
1?
19
#213774
07
#213971
0<
#213972
1=
#214402
1>
#214404
06
#214405
1;
#214444
1<
#216518
1(
#217065
1+
#217755
1)
#218547
1&
#218825
1$
#219007
1'
#219448
0*
#220000
b1110 !
b1100 !
b1000 !
b0 !
b1100 "
b1110 "
b1010 "
b10 "
0#
1,
#220189
1%
#220979
0A
#220989
1B
0C
#220999
03
0D
0E
0F
0G
0@
#222071
09
#222076
17
#222187
0<
#222293
04
#222373
16
#222749
08
#223117
06
#223664
05
#223740
0:
#223774
07
#223971
1<
#223972
0=
#224402
0>
#224404
16
#224415
0;
#224822
0?
0<
#226518
0(
#227065
0+
#227755
0)
#228825
0$
#229007
0'
#229448
1*
#229604
0&
#230000
b1 !
b11 !
b111 !
b1111 !
b11 "
b1 "
b101 "
b1101 "
1#
0,
#230189
0%
#230979
1A
#230989
0B
1C
#230999
13
1D
1E
1F
1G
1@
#232071
1:
#232076
17
#232187
1<
#232293
14
#232373
06
#232749
18
#233117
16
#233664
15
#233765
1?
19
#233774
07
#233971
0<
#233972
1=
#234402
1>
#234404
06
#234405
1;
#234444
1<
#236518
1(
#237065
1+
#237755
1)
#238547
1&
#238825
1$
#239007
1'
#239448
0*
#240000
b1110 !
b1100 !
b1000 !
b0 !
b1100 "
b1110 "
b1010 "
b10 "
0#
1,
#240189
1%
#240979
0A
#240989
1B
0C
#240999
03
0D
0E
0F
0G
0@
#242071
09
#242076
17
#242187
0<
#242293
04
#242373
16
#242749
08
#243117
06
#243664
05
#243740
0:
#243774
07
#243971
1<
#243972
0=
#244402
0>
#244404
16
#244415
0;
#244822
0?
0<
#246518
0(
#247065
0+
#247755
0)
#248825
0$
#249007
0'
#249448
1*
#249604
0&
#250000
b1 !
b11 !
b111 !
b1111 !
b11 "
b1 "
b101 "
b1101 "
1#
0,
#250189
0%
#250979
1A
#250989
0B
1C
#250999
13
1D
1E
1F
1G
1@
#252071
1:
#252076
17
#252187
1<
#252293
14
#252373
06
#252749
18
#253117
16
#253664
15
#253765
1?
19
#253774
07
#253971
0<
#253972
1=
#254402
1>
#254404
06
#254405
1;
#254444
1<
#256518
1(
#257065
1+
#257755
1)
#258547
1&
#258825
1$
#259007
1'
#259448
0*
#260000
b1110 !
b1100 !
b1000 !
b0 !
b1100 "
b1110 "
b1010 "
b10 "
0#
1,
#260189
1%
#260979
0A
#260989
1B
0C
#260999
03
0D
0E
0F
0G
0@
#262071
09
#262076
17
#262187
0<
#262293
04
#262373
16
#262749
08
#263117
06
#263664
05
#263740
0:
#263774
07
#263971
1<
#263972
0=
#264402
0>
#264404
16
#264415
0;
#264822
0?
0<
#266518
0(
#267065
0+
#267755
0)
#268825
0$
#269007
0'
#269448
1*
#269604
0&
#270000
b1 !
b11 !
b111 !
b1111 !
b11 "
b1 "
b101 "
b1101 "
1#
0,
#270189
0%
#270979
1A
#270989
0B
1C
#270999
13
1D
1E
1F
1G
1@
#272071
1:
#272076
17
#272187
1<
#272293
14
#272373
06
#272749
18
#273117
16
#273664
15
#273765
1?
19
#273774
07
#273971
0<
#273972
1=
#274402
1>
#274404
06
#274405
1;
#274444
1<
#276518
1(
#277065
1+
#277755
1)
#278547
1&
#278825
1$
#279007
1'
#279448
0*
#280000
b1110 !
b1100 !
b1000 !
b0 !
b1100 "
b1110 "
b1010 "
b10 "
0#
1,
#280189
1%
#280979
0A
#280989
1B
0C
#280999
03
0D
0E
0F
0G
0@
#282071
09
#282076
17
#282187
0<
#282293
04
#282373
16
#282749
08
#283117
06
#283664
05
#283740
0:
#283774
07
#283971
1<
#283972
0=
#284402
0>
#284404
16
#284415
0;
#284822
0?
0<
#286518
0(
#287065
0+
#287755
0)
#288825
0$
#289007
0'
#289448
1*
#289604
0&
#290000
b1 !
b11 !
b111 !
b1111 !
b11 "
b1 "
b101 "
b1101 "
1#
0,
#290189
0%
#290979
1A
#290989
0B
1C
#290999
13
1D
1E
1F
1G
1@
#292071
1:
#292076
17
#292187
1<
#292293
14
#292373
06
#292749
18
#293117
16
#293664
15
#293765
1?
19
#293774
07
#293971
0<
#293972
1=
#294402
1>
#294404
06
#294405
1;
#294444
1<
#296518
1(
#297065
1+
#297755
1)
#298547
1&
#298825
1$
#299007
1'
#299448
0*
#300000
b1110 !
b1100 !
b1000 !
b0 !
b1100 "
b1110 "
b1010 "
b10 "
0#
1,
#300189
1%
#300979
0A
#300989
1B
0C
#300999
03
0D
0E
0F
0G
0@
#302071
09
#302076
17
#302187
0<
#302293
04
#302373
16
#302749
08
#303117
06
#303664
05
#303740
0:
#303774
07
#303971
1<
#303972
0=
#304402
0>
#304404
16
#304415
0;
#304822
0?
0<
#306518
0(
#307065
0+
#307755
0)
#308825
0$
#309007
0'
#309448
1*
#309604
0&
#310000
b1 !
b11 !
b111 !
b1111 !
b11 "
b1 "
b101 "
b1101 "
1#
0,
#310189
0%
#310979
1A
#310989
0B
1C
#310999
13
1D
1E
1F
1G
1@
#312071
1:
#312076
17
#312187
1<
#312293
14
#312373
06
#312749
18
#313117
16
#313664
15
#313765
1?
19
#313774
07
#313971
0<
#313972
1=
#314402
1>
#314404
06
#314405
1;
#314444
1<
#316518
1(
#317065
1+
#317755
1)
#318547
1&
#318825
1$
#319007
1'
#319448
0*
#320000
b1110 !
b1100 !
b1000 !
b0 !
b1100 "
b1110 "
b1010 "
b10 "
0#
1,
#320189
1%
#320979
0A
#320989
1B
0C
#320999
03
0D
0E
0F
0G
0@
#322071
09
#322076
17
#322187
0<
#322293
04
#322373
16
#322749
08
#323117
06
#323664
05
#323740
0:
#323774
07
#323971
1<
#323972
0=
#324402
0>
#324404
16
#324415
0;
#324822
0?
0<
#326518
0(
#327065
0+
#327755
0)
#328825
0$
#329007
0'
#329448
1*
#329604
0&
#330000
b1 !
b11 !
b111 !
b1111 !
b11 "
b1 "
b101 "
b1101 "
1#
0,
#330189
0%
#330979
1A
#330989
0B
1C
#330999
13
1D
1E
1F
1G
1@
#332071
1:
#332076
17
#332187
1<
#332293
14
#332373
06
#332749
18
#333117
16
#333664
15
#333765
1?
19
#333774
07
#333971
0<
#333972
1=
#334402
1>
#334404
06
#334405
1;
#334444
1<
#336518
1(
#337065
1+
#337755
1)
#338547
1&
#338825
1$
#339007
1'
#339448
0*
#340000
b1110 !
b1100 !
b1000 !
b0 !
b1100 "
b1110 "
b1010 "
b10 "
0#
1,
#340189
1%
#340979
0A
#340989
1B
0C
#340999
03
0D
0E
0F
0G
0@
#342071
09
#342076
17
#342187
0<
#342293
04
#342373
16
#342749
08
#343117
06
#343664
05
#343740
0:
#343774
07
#343971
1<
#343972
0=
#344402
0>
#344404
16
#344415
0;
#344822
0?
0<
#346518
0(
#347065
0+
#347755
0)
#348825
0$
#349007
0'
#349448
1*
#349604
0&
#350000
b1 !
b11 !
b111 !
b1111 !
b11 "
b1 "
b101 "
b1101 "
1#
0,
#350189
0%
#350979
1A
#350989
0B
1C
#350999
13
1D
1E
1F
1G
1@
#352071
1:
#352076
17
#352187
1<
#352293
14
#352373
06
#352749
18
#353117
16
#353664
15
#353765
1?
19
#353774
07
#353971
0<
#353972
1=
#354402
1>
#354404
06
#354405
1;
#354444
1<
#356518
1(
#357065
1+
#357755
1)
#358547
1&
#358825
1$
#359007
1'
#359448
0*
#360000
b1110 !
b1100 !
b1000 !
b0 !
b1100 "
b1110 "
b1010 "
b10 "
0#
1,
#360189
1%
#360979
0A
#360989
1B
0C
#360999
03
0D
0E
0F
0G
0@
#362071
09
#362076
17
#362187
0<
#362293
04
#362373
16
#362749
08
#363117
06
#363664
05
#363740
0:
#363774
07
#363971
1<
#363972
0=
#364402
0>
#364404
16
#364415
0;
#364822
0?
0<
#366518
0(
#367065
0+
#367755
0)
#368825
0$
#369007
0'
#369448
1*
#369604
0&
#370000
b1 !
b11 !
b111 !
b1111 !
b11 "
b1 "
b101 "
b1101 "
1#
0,
#370189
0%
#370979
1A
#370989
0B
1C
#370999
13
1D
1E
1F
1G
1@
#372071
1:
#372076
17
#372187
1<
#372293
14
#372373
06
#372749
18
#373117
16
#373664
15
#373765
1?
19
#373774
07
#373971
0<
#373972
1=
#374402
1>
#374404
06
#374405
1;
#374444
1<
#376518
1(
#377065
1+
#377755
1)
#378547
1&
#378825
1$
#379007
1'
#379448
0*
#380000
b1110 !
b1100 !
b1000 !
b0 !
b1100 "
b1110 "
b1010 "
b10 "
0#
1,
#380189
1%
#380979
0A
#380989
1B
0C
#380999
03
0D
0E
0F
0G
0@
#382071
09
#382076
17
#382187
0<
#382293
04
#382373
16
#382749
08
#383117
06
#383664
05
#383740
0:
#383774
07
#383971
1<
#383972
0=
#384402
0>
#384404
16
#384415
0;
#384822
0?
0<
#386518
0(
#387065
0+
#387755
0)
#388825
0$
#389007
0'
#389448
1*
#389604
0&
#390000
b1 !
b11 !
b111 !
b1111 !
b11 "
b1 "
b101 "
b1101 "
1#
0,
#390189
0%
#390979
1A
#390989
0B
1C
#390999
13
1D
1E
1F
1G
1@
#392071
1:
#392076
17
#392187
1<
#392293
14
#392373
06
#392749
18
#393117
16
#393664
15
#393765
1?
19
#393774
07
#393971
0<
#393972
1=
#394402
1>
#394404
06
#394405
1;
#394444
1<
#396518
1(
#397065
1+
#397755
1)
#398547
1&
#398825
1$
#399007
1'
#399448
0*
#400000
b1110 !
b1100 !
b1000 !
b0 !
b1100 "
b1110 "
b1010 "
b10 "
0#
1,
#400189
1%
#400979
0A
#400989
1B
0C
#400999
03
0D
0E
0F
0G
0@
#402071
09
#402076
17
#402187
0<
#402293
04
#402373
16
#402749
08
#403117
06
#403664
05
#403740
0:
#403774
07
#403971
1<
#403972
0=
#404402
0>
#404404
16
#404415
0;
#404822
0?
0<
#406518
0(
#407065
0+
#407755
0)
#408825
0$
#409007
0'
#409448
1*
#409604
0&
#410000
b1 !
b11 !
b111 !
b1111 !
b11 "
b1 "
b101 "
b1101 "
1#
0,
#410189
0%
#410979
1A
#410989
0B
1C
#410999
13
1D
1E
1F
1G
1@
#412071
1:
#412076
17
#412187
1<
#412293
14
#412373
06
#412749
18
#413117
16
#413664
15
#413765
1?
19
#413774
07
#413971
0<
#413972
1=
#414402
1>
#414404
06
#414405
1;
#414444
1<
#416518
1(
#417065
1+
#417755
1)
#418547
1&
#418825
1$
#419007
1'
#419448
0*
#420000
b1110 !
b1100 !
b1000 !
b0 !
b1100 "
b1110 "
b1010 "
b10 "
0#
1,
#420189
1%
#420979
0A
#420989
1B
0C
#420999
03
0D
0E
0F
0G
0@
#422071
09
#422076
17
#422187
0<
#422293
04
#422373
16
#422749
08
#423117
06
#423664
05
#423740
0:
#423774
07
#423971
1<
#423972
0=
#424402
0>
#424404
16
#424415
0;
#424822
0?
0<
#426518
0(
#427065
0+
#427755
0)
#428825
0$
#429007
0'
#429448
1*
#429604
0&
#430000
b1 !
b11 !
b111 !
b1111 !
b11 "
b1 "
b101 "
b1101 "
1#
0,
#430189
0%
#430979
1A
#430989
0B
1C
#430999
13
1D
1E
1F
1G
1@
#432071
1:
#432076
17
#432187
1<
#432293
14
#432373
06
#432749
18
#433117
16
#433664
15
#433765
1?
19
#433774
07
#433971
0<
#433972
1=
#434402
1>
#434404
06
#434405
1;
#434444
1<
#436518
1(
#437065
1+
#437755
1)
#438547
1&
#438825
1$
#439007
1'
#439448
0*
#440000
b1110 !
b1100 !
b1000 !
b0 !
b1100 "
b1110 "
b1010 "
b10 "
0#
1,
#440189
1%
#440979
0A
#440989
1B
0C
#440999
03
0D
0E
0F
0G
0@
#442071
09
#442076
17
#442187
0<
#442293
04
#442373
16
#442749
08
#443117
06
#443664
05
#443740
0:
#443774
07
#443971
1<
#443972
0=
#444402
0>
#444404
16
#444415
0;
#444822
0?
0<
#446518
0(
#447065
0+
#447755
0)
#448825
0$
#449007
0'
#449448
1*
#449604
0&
#450000
b1 !
b11 !
b111 !
b1111 !
b11 "
b1 "
b101 "
b1101 "
1#
0,
#450189
0%
#450979
1A
#450989
0B
1C
#450999
13
1D
1E
1F
1G
1@
#452071
1:
#452076
17
#452187
1<
#452293
14
#452373
06
#452749
18
#453117
16
#453664
15
#453765
1?
19
#453774
07
#453971
0<
#453972
1=
#454402
1>
#454404
06
#454405
1;
#454444
1<
#456518
1(
#457065
1+
#457755
1)
#458547
1&
#458825
1$
#459007
1'
#459448
0*
#460000
b1110 !
b1100 !
b1000 !
b0 !
b1100 "
b1110 "
b1010 "
b10 "
0#
1,
#460189
1%
#460979
0A
#460989
1B
0C
#460999
03
0D
0E
0F
0G
0@
#462071
09
#462076
17
#462187
0<
#462293
04
#462373
16
#462749
08
#463117
06
#463664
05
#463740
0:
#463774
07
#463971
1<
#463972
0=
#464402
0>
#464404
16
#464415
0;
#464822
0?
0<
#466518
0(
#467065
0+
#467755
0)
#468825
0$
#469007
0'
#469448
1*
#469604
0&
#470000
b1 !
b11 !
b111 !
b1111 !
b11 "
b1 "
b101 "
b1101 "
1#
0,
#470189
0%
#470979
1A
#470989
0B
1C
#470999
13
1D
1E
1F
1G
1@
#472071
1:
#472076
17
#472187
1<
#472293
14
#472373
06
#472749
18
#473117
16
#473664
15
#473765
1?
19
#473774
07
#473971
0<
#473972
1=
#474402
1>
#474404
06
#474405
1;
#474444
1<
#476518
1(
#477065
1+
#477755
1)
#478547
1&
#478825
1$
#479007
1'
#479448
0*
#480000
b1110 !
b1100 !
b1000 !
b0 !
b1100 "
b1110 "
b1010 "
b10 "
0#
1,
#480189
1%
#480979
0A
#480989
1B
0C
#480999
03
0D
0E
0F
0G
0@
#482071
09
#482076
17
#482187
0<
#482293
04
#482373
16
#482749
08
#483117
06
#483664
05
#483740
0:
#483774
07
#483971
1<
#483972
0=
#484402
0>
#484404
16
#484415
0;
#484822
0?
0<
#486518
0(
#487065
0+
#487755
0)
#488825
0$
#489007
0'
#489448
1*
#489604
0&
#490000
b1 !
b11 !
b111 !
b1111 !
b11 "
b1 "
b101 "
b1101 "
1#
0,
#490189
0%
#490979
1A
#490989
0B
1C
#490999
13
1D
1E
1F
1G
1@
#492071
1:
#492076
17
#492187
1<
#492293
14
#492373
06
#492749
18
#493117
16
#493664
15
#493765
1?
19
#493774
07
#493971
0<
#493972
1=
#494402
1>
#494404
06
#494405
1;
#494444
1<
#496518
1(
#497065
1+
#497755
1)
#498547
1&
#498825
1$
#499007
1'
#499448
0*
#500000
b1110 !
b1100 !
b1000 !
b0 !
b1100 "
b1110 "
b1010 "
b10 "
0#
1,
#500189
1%
#500979
0A
#500989
1B
0C
#500999
03
0D
0E
0F
0G
0@
#502071
09
#502076
17
#502187
0<
#502293
04
#502373
16
#502749
08
#503117
06
#503664
05
#503740
0:
#503774
07
#503971
1<
#503972
0=
#504402
0>
#504404
16
#504415
0;
#504822
0?
0<
#506518
0(
#507065
0+
#507755
0)
#508825
0$
#509007
0'
#509448
1*
#509604
0&
#510000
b1 !
b11 !
b111 !
b1111 !
b11 "
b1 "
b101 "
b1101 "
1#
0,
#510189
0%
#510979
1A
#510989
0B
1C
#510999
13
1D
1E
1F
1G
1@
#512071
1:
#512076
17
#512187
1<
#512293
14
#512373
06
#512749
18
#513117
16
#513664
15
#513765
1?
19
#513774
07
#513971
0<
#513972
1=
#514402
1>
#514404
06
#514405
1;
#514444
1<
#516518
1(
#517065
1+
#517755
1)
#518547
1&
#518825
1$
#519007
1'
#519448
0*
#520000
b1110 !
b1100 !
b1000 !
b0 !
b1100 "
b1110 "
b1010 "
b10 "
0#
1,
#520189
1%
#520979
0A
#520989
1B
0C
#520999
03
0D
0E
0F
0G
0@
#522071
09
#522076
17
#522187
0<
#522293
04
#522373
16
#522749
08
#523117
06
#523664
05
#523740
0:
#523774
07
#523971
1<
#523972
0=
#524402
0>
#524404
16
#524415
0;
#524822
0?
0<
#526518
0(
#527065
0+
#527755
0)
#528825
0$
#529007
0'
#529448
1*
#529604
0&
#530000
b1 !
b11 !
b111 !
b1111 !
b11 "
b1 "
b101 "
b1101 "
1#
0,
#530189
0%
#530979
1A
#530989
0B
1C
#530999
13
1D
1E
1F
1G
1@
#532071
1:
#532076
17
#532187
1<
#532293
14
#532373
06
#532749
18
#533117
16
#533664
15
#533765
1?
19
#533774
07
#533971
0<
#533972
1=
#534402
1>
#534404
06
#534405
1;
#534444
1<
#536518
1(
#537065
1+
#537755
1)
#538547
1&
#538825
1$
#539007
1'
#539448
0*
#540000
b1110 !
b1100 !
b1000 !
b0 !
b1100 "
b1110 "
b1010 "
b10 "
0#
1,
#540189
1%
#540979
0A
#540989
1B
0C
#540999
03
0D
0E
0F
0G
0@
#542071
09
#542076
17
#542187
0<
#542293
04
#542373
16
#542749
08
#543117
06
#543664
05
#543740
0:
#543774
07
#543971
1<
#543972
0=
#544402
0>
#544404
16
#544415
0;
#544822
0?
0<
#546518
0(
#547065
0+
#547755
0)
#548825
0$
#549007
0'
#549448
1*
#549604
0&
#550000
b1 !
b11 !
b111 !
b1111 !
b11 "
b1 "
b101 "
b1101 "
1#
0,
#550189
0%
#550979
1A
#550989
0B
1C
#550999
13
1D
1E
1F
1G
1@
#552071
1:
#552076
17
#552187
1<
